AIID,CltType,ForTime,AttackInter,AttackDone,abilityid
AI序号,控制类型,寻标间隔,间隙攻击,完成攻击,技能ID
int,int,float,int,int,int
10001,1,0,0,0,10001
10002,2,3,1,1,10002
10003,3,0,1,1,10003
10004,4,0,1,1,10004
10005,5,1,1,1,10005